simulation/qsim/filtro.msim.vcd
$comment
	File created using the following command:
		vcd file filtro.msim.vcd -direction
$end
$date
	Wed May 27 00:16:23 2020
$end
$version
	ModelSim Version 10.1d
$end
$timescale
	1ps
$end
$scope module topLevel_vlg_vec_tst $end
$var reg 1 ! i_clk $end
$var reg 8 " i_pixel [7:0] $end
$var wire 1 # o_pixel [7] $end
$var wire 1 $ o_pixel [6] $end
$var wire 1 % o_pixel [5] $end
$var wire 1 & o_pixel [4] $end
$var wire 1 ' o_pixel [3] $end
$var wire 1 ( o_pixel [2] $end
$var wire 1 ) o_pixel [1] $end
$var wire 1 * o_pixel [0] $end
$var wire 1 + sampler $end
$scope module i1 $end
$var wire 1 , gnd $end
$var wire 1 - vcc $end
$var wire 1 . unknown $end
$var tri1 1 / devclrn $end
$var tri1 1 0 devpor $end
$var tri1 1 1 devoe $end
$var wire 1 2 i_clk~input_o $end
$var wire 1 3 i_pixel[0]~input_o $end
$var wire 1 4 i_pixel[1]~input_o $end
$var wire 1 5 i_pixel[2]~input_o $end
$var wire 1 6 i_pixel[3]~input_o $end
$var wire 1 7 i_pixel[4]~input_o $end
$var wire 1 8 i_pixel[5]~input_o $end
$var wire 1 9 i_pixel[6]~input_o $end
$var wire 1 : i_pixel[7]~input_o $end
$var wire 1 ; o_pixel[0]~output_o $end
$var wire 1 < o_pixel[1]~output_o $end
$var wire 1 = o_pixel[2]~output_o $end
$var wire 1 > o_pixel[3]~output_o $end
$var wire 1 ? o_pixel[4]~output_o $end
$var wire 1 @ o_pixel[5]~output_o $end
$var wire 1 A o_pixel[6]~output_o $end
$var wire 1 B o_pixel[7]~output_o $end
$upscope $end
$upscope $end
$enddefinitions $end
#0
$dumpvars
0!
b1 "
0*
0)
0(
0'
0&
0%
0$
0#
x+
0,
1-
x.
1/
10
11
02
13
04
05
06
07
08
09
0:
0;
0<
0=
0>
0?
0@
0A
0B
$end
#5000
1!
12
0+
#10000
0!
02
1+
#15000
1!
12
0+
#20000
0!
02
1+
#25000
1!
12
0+
#30000
0!
02
1+
#35000
1!
12
0+
#40000
0!
02
1+
#45000
1!
12
0+
#50000
0!
02
1+
#55000
1!
12
0+
#60000
0!
02
1+
#65000
1!
12
0+
#70000
0!
02
1+
#75000
1!
12
0+
#80000
0!
02
1+
#85000
1!
12
0+
#90000
0!
02
1+
#95000
1!
12
0+
#100000
0!
02
1+
#105000
1!
12
0+
#110000
0!
02
1+
#115000
1!
12
0+
#120000
0!
02
1+
#125000
1!
12
0+
#130000
0!
02
1+
#135000
1!
12
0+
#140000
0!
02
1+
#145000
1!
12
0+
#150000
0!
02
1+
#155000
1!
12
0+
#160000
0!
02
1+
#165000
1!
12
0+
#170000
0!
02
1+
#175000
1!
12
0+
#180000
0!
02
1+
#185000
1!
12
0+
#190000
0!
02
1+
#195000
1!
12
0+
#200000
0!
02
1+
#205000
1!
12
0+
#210000
0!
02
1+
#215000
1!
12
0+
#220000
0!
02
1+
#225000
1!
12
0+
#230000
0!
02
1+
#235000
1!
12
0+
#240000
0!
02
1+
#245000
1!
12
0+
#250000
0!
02
1+
#255000
1!
12
0+
#260000
0!
02
1+
#265000
1!
12
0+
#270000
0!
02
1+
#275000
1!
12
0+
#280000
0!
02
1+
#285000
1!
12
0+
#290000
0!
02
1+
#295000
1!
12
0+
#300000
0!
02
1+
#305000
1!
12
0+
#310000
0!
02
1+
#315000
1!
12
0+
#320000
0!
02
1+
#325000
1!
12
0+
#330000
0!
02
1+
#335000
1!
12
0+
#340000
0!
02
1+
#345000
1!
12
0+
#350000
0!
02
1+
#355000
1!
12
0+
#360000
0!
02
1+
#365000
1!
12
0+
#370000
0!
02
1+
#375000
1!
12
0+
#380000
0!
02
1+
#385000
1!
12
0+
#390000
0!
02
1+
#395000
1!
12
0+
#400000
0!
02
1+
#405000
1!
12
0+
#410000
0!
02
1+
#415000
1!
12
0+
#420000
0!
02
1+
#425000
1!
12
0+
#430000
0!
02
1+
#435000
1!
12
0+
#440000
0!
02
1+
#445000
1!
12
0+
#450000
0!
02
1+
#455000
1!
12
0+
#460000
0!
02
1+
#465000
1!
12
0+
#470000
0!
02
1+
#475000
1!
12
0+
#480000
0!
02
1+
#485000
1!
12
0+
#490000
0!
02
1+
#495000
1!
12
0+
#500000
0!
02
1+
#505000
1!
12
0+
#510000
0!
02
1+
#515000
1!
12
0+
#520000
0!
02
1+
#525000
1!
12
0+
#530000
0!
02
1+
#535000
1!
12
0+
#540000
0!
02
1+
#545000
1!
12
0+
#550000
0!
02
1+
#555000
1!
12
0+
#560000
0!
02
1+
#565000
1!
12
0+
#570000
0!
02
1+
#575000
1!
12
0+
#580000
0!
02
1+
#585000
1!
12
0+
#590000
0!
02
1+
#595000
1!
12
0+
#600000
0!
02
1+
#605000
1!
12
0+
#610000
0!
02
1+
#615000
1!
12
0+
#620000
0!
02
1+
#625000
1!
12
0+
#630000
0!
02
1+
#635000
1!
12
0+
#640000
0!
02
1+
#645000
1!
12
0+
#650000
0!
02
1+
#655000
1!
12
0+
#660000
0!
02
1+
#665000
1!
12
0+
#670000
0!
02
1+
#675000
1!
12
0+
#680000
0!
02
1+
#685000
1!
12
0+
#690000
0!
02
1+
#695000
1!
12
0+
#700000
0!
02
1+
#705000
1!
12
0+
#710000
0!
02
1+
#715000
1!
12
0+
#720000
0!
02
1+
#725000
1!
12
0+
#730000
0!
02
1+
#735000
1!
12
0+
#740000
0!
02
1+
#745000
1!
12
0+
#750000
0!
02
1+
#755000
1!
12
0+
#760000
0!
02
1+
#765000
1!
12
0+
#770000
0!
02
1+
#775000
1!
12
0+
#780000
0!
02
1+
#785000
1!
12
0+
#790000
0!
02
1+
#795000
1!
12
0+
#800000
0!
02
1+
#805000
1!
12
0+
#810000
0!
02
1+
#815000
1!
12
0+
#820000
0!
02
1+
#825000
1!
12
0+
#830000
0!
02
1+
#835000
1!
12
0+
#840000
0!
02
1+
#845000
1!
12
0+
#850000
0!
02
1+
#855000
1!
12
0+
#860000
0!
02
1+
#865000
1!
12
0+
#870000
0!
02
1+
#875000
1!
12
0+
#880000
0!
02
1+
#885000
1!
12
0+
#890000
0!
02
1+
#895000
1!
12
0+
#900000
0!
02
1+
#905000
1!
12
0+
#910000
0!
02
1+
#915000
1!
12
0+
#920000
0!
02
1+
#925000
1!
12
0+
#930000
0!
02
1+
#935000
1!
12
0+
#940000
0!
02
1+
#945000
1!
12
0+
#950000
0!
02
1+
#955000
1!
12
0+
#960000
0!
02
1+
#965000
1!
12
0+
#970000
0!
02
1+
#975000
1!
12
0+
#980000
0!
02
1+
#985000
1!
12
0+
#990000
0!
02
1+
#995000
1!
12
0+
